7_Kedich.utf8
…
meteo_data <- lapply(as.character(catalog$ID), function(X) read_sheet('1FWC_YBrlINnjR5POC2kxa_LnLC7n5fFA90oNA7dLTP0', sheet = X, col_types = 'ccncccnninncnnnnncc')) %>% 
  set_names(catalog$ID) %>% 
  bind_rows(.id = 'id') %>% 
  mutate(id = as.numeric(id)) %>% 
  full_join(catalog, by = c('id' = 'ID')) %>% 
  mutate(Datetime = as.POSIXct(Datetime)) %>% 
  relocate(id, .before = NAME) %>% 
  set_names(c('Datetime', 'Wdir', 'Wspd', 'Vis', 'Phen', 'Cloud', 'T', 'Td', 'F', 'Te', 'Tes', 'Comf', 'P', "Po", 'Tmin', 'Tmax', 'R', 'R24', 'S', 'ID', 'NAME', 'LON', 'LAT', 'H'))

    :

meteo_data

## # A tibble: 16,367 x 24
##    Datetime            Wdir   Wspd Vis   Phen  Cloud     T    Td     F    Te
##    <dttm>              <chr> <dbl> <chr> <chr> <chr> <dbl> <dbl> <int> <dbl>
##  1 2019-07-24 15:00:00          1 10  ~ 9/9 ~  16.5  13.5    82    17
##  2 2019-07-24 18:00:00      0 10  {~ 9/4 ~  15.6  14.5    93    15
##  3 2019-07-24 21:00:00          1 2000~  10/1~  14.7  14.5    99    15
##  4 2019-07-25 00:00:00          1 500   ?/?    14.4  14.3    99    15
##  5 2019-07-25 03:00:00         1 500   ?/?    14.7  14.6    99    15
##  6 2019-07-25 06:00:00         1 10  ~ 9/8 ~  16.7  15.4    92    18
##  7 2019-07-25 09:00:00         1 10  <NA>  9/9 ~  19.5  15.3    77    22
##  8 2019-07-25 12:00:00          1 10   ~ 9/9 ~  19.5  15.3    77    22
##  9 2019-07-25 15:00:00         1 10   ~ 9/9 ~  21.6  16.2    71    25
## 10 2019-07-25 18:00:00          1 10  ~ 9/9 ~  17.7  17.2    97    19
## # ... with 16,357 more rows, and 14 more variables: Tes <dbl>, Comf <chr>,
## #   P <dbl>, Po <dbl>, Tmin <dbl>, Tmax <dbl>, R <dbl>, R24 <chr>, S <chr>,
## #   ID <dbl>, NAME <chr>, LON <dbl>, LAT <dbl>, H <dbl>

  (     ):

filter_data <- meteo_data %>% 
  filter(str_detect(NAME, '') | str_detect(NAME, ''))
print(filter_data)

## # A tibble: 1,293 x 24
##    Datetime            Wdir   Wspd Vis   Phen  Cloud     T    Td     F    Te
##    <dttm>              <chr> <dbl> <chr> <chr> <chr> <dbl> <dbl> <int> <dbl>
##  1 2019-07-24 15:00:00         1 4000~ ~ 10/1~  15.3  14.5    95    16
##  2 2019-07-24 18:00:00      0 4000~ ~ 9/8 ~  15.3  14.4    94    15
##  3 2019-07-24 21:00:00      0 4000~  8/5 ~  13.1  12.5    96    13
##  4 2019-07-25 00:00:00         1 4000~  10/1~  13.7  13.2    97    14
##  5 2019-07-25 03:00:00      0 4000~  10/1~  14.8  14.4    97    14
##  6 2019-07-25 06:00:00         1 4000~  9/9 ~  18.2  16.6    90    20
##  7 2019-07-25 09:00:00          1 10  <NA>  10/8~  21.2  14.7    66    24
##  8 2019-07-25 12:00:00         1 4000~ ~ 10/1~  17.9  16.8    93    19
##  9 2019-07-25 15:00:00         2 10  {~ 9/9 ~  19.8  16.9    83    23
## 10 2019-07-25 18:00:00          1 4000~ ~ 10/6~  18.2  16.4    89    20
## # ... with 1,283 more rows, and 14 more variables: Tes <dbl>, Comf <chr>,
## #   P <dbl>, Po <dbl>, Tmin <dbl>, Tmax <dbl>, R <dbl>, R24 <chr>, S <chr>,
## #   ID <dbl>, NAME <chr>, LON <dbl>, LAT <dbl>, H <dbl>

  (   0:00  3:00):

filter_data_night <- filter_data %>% 
  filter(hour(Datetime) == 0 | hour(Datetime) == 3)
print(filter_data_night)

## # A tibble: 324 x 24
##    Datetime            Wdir   Wspd Vis   Phen  Cloud     T    Td     F    Te
##    <dttm>              <chr> <dbl> <chr> <chr> <chr> <dbl> <dbl> <int> <dbl>
##  1 2019-07-25 00:00:00         1 4000~  10/1~  13.7  13.2    97    14
##  2 2019-07-25 03:00:00      0 4000~  10/1~  14.8  14.4    97    14
##  3 2019-07-26 00:00:00         1 4000~  9/8 ~  17.4  16.6    95    18
##  4 2019-07-26 03:00:00         1 4000~  8/8 ~  17.1  16.5    96    18
##  5 2019-07-27 00:00:00         1 4000~  10/6~  16.1  14.6    91    17
##  6 2019-07-27 03:00:00         1 4000~  10/0~  15.5  14.8    96    16
##  7 2019-07-28 00:00:00      0 10  <NA>  3/3 ~  18    15.1    83    18
##  8 2019-07-28 03:00:00      0 4000~  3/3 ~  16.8  15.8    94    17
##  9 2019-07-29 00:00:00         NA 10  <NA>  1/1 ~  12.5   7.4    71    11
## 10 2019-07-29 03:00:00         1 10  <NA>     10.6   4.6    66    10
## # ... with 314 more rows, and 14 more variables: Tes <dbl>, Comf <chr>,
## #   P <dbl>, Po <dbl>, Tmin <dbl>, Tmax <dbl>, R <dbl>, R24 <chr>, S <chr>,
## #   ID <dbl>, NAME <chr>, LON <dbl>, LAT <dbl>, H <dbl>
…
